%YAML 1.1
%TAG !u! tag:unity3d.com,2011:
--- !u!114 &11400000
MonoBehaviour:
  m_ObjectHideFlags: 0
  m_CorrespondingSourceObject: {fileID: 0}
  m_PrefabInstance: {fileID: 0}
  m_PrefabAsset: {fileID: 0}
  m_GameObject: {fileID: 0}
  m_Enabled: 1
  m_EditorHideFlags: 0
  m_Script: {fileID: 11500000, guid: 468a46d0ae32c3544b7d98094e6448a9, type: 3}
  m_Name: AddressableAssetSettings
  m_EditorClassIdentifier: 
  m_DefaultGroup: ca62f5941c1444605892ad704914b52e
  m_BuildRemoteCatalog: 0
  m_RemoteCatalogBuildPath:
    m_Id: 
  m_RemoteCatalogLoadPath:
    m_Id: 
  m_overridePlayerVersion: 
  m_GroupAssets:
  - {fileID: 11400000, guid: 9053f9cf37ada49caaad36f2cd08686a, type: 2}
  - {fileID: 11400000, guid: 05f09d75e8f034746984a4548f6af308, type: 2}
  m_BuildSettings:
    m_CompileScriptsInVirtualMode: 0
    m_CleanupStreamingAssetsAfterBuilds: 1
    m_LogResourceManagerExceptions: 1
    m_BundleBuildPath: Temp/com.unity.addressables/AssetBundles
  m_ProfileSettings:
    m_Profiles:
    - m_InheritedParent: 
      m_Id: 8e8764ace5b254b05bfb4e4f7085ad3d
      m_ProfileName: Default
      m_Values:
      - m_Id: 73a5d7ad2162a42359342f491a98237d
        m_Value: '[UnityEditor.EditorUserBuildSettings.activeBuildTarget]'
      - m_Id: 988116eb33d2c475d92ca435b701a34d
        m_Value: '[UnityEngine.AddressableAssets.Addressables.BuildPath]/[BuildTarget]'
      - m_Id: dbba2fb4a333c44e787c5b19c130acbf
        m_Value: '{UnityEngine.AddressableAssets.Addressables.RuntimePath}/[BuildTarget]'
      - m_Id: a4bb525d930ea455388160896e8beca3
        m_Value: ServerData/[BuildTarget]
      - m_Id: 748bab25a03594c219c043fe3192831c
        m_Value: http://localhost/[BuildTarget]
    m_ProfileEntryNames:
    - m_Id: 73a5d7ad2162a42359342f491a98237d
      m_Name: BuildTarget
      m_InlineUsage: 0
    - m_Id: 988116eb33d2c475d92ca435b701a34d
      m_Name: LocalBuildPath
      m_InlineUsage: 0
    - m_Id: dbba2fb4a333c44e787c5b19c130acbf
      m_Name: LocalLoadPath
      m_InlineUsage: 0
    - m_Id: a4bb525d930ea455388160896e8beca3
      m_Name: RemoteBuildPath
      m_InlineUsage: 0
    - m_Id: 748bab25a03594c219c043fe3192831c
      m_Name: RemoteLoadPath
      m_InlineUsage: 0
    m_ProfileVersion: 1
  m_LabelTable:
    m_LabelNames:
    - default
    - Levels
  m_SchemaTemplates: []
  m_GroupTemplateObjects:
  - {fileID: 11400000, guid: f9ecd4406c55f43f3b6d304a4bcf5ad4, type: 2}
  m_InitializationObjects: []
  m_CertificateHandlerType:
    m_AssemblyName: 
    m_ClassName: 
  m_ActivePlayerDataBuilderIndex: 3
  m_DataBuilders:
  - {fileID: 11400000, guid: db2131b722cef4014b13dee3dca45222, type: 2}
  - {fileID: 11400000, guid: d32a3b9368243421dbb9fea171eccc0e, type: 2}
  - {fileID: 11400000, guid: 3f23fa22f11834c3ead0be16892f455f, type: 2}
  - {fileID: 11400000, guid: 6dfbdb96dded94c368509ef27ffd7875, type: 2}
  m_ActiveProfileId: 8e8764ace5b254b05bfb4e4f7085ad3d
  m_HostingServicesManager:
    m_HostingServiceInfos: []
    m_Settings: {fileID: 11400000}
    m_NextInstanceId: 0
    m_RegisteredServiceTypeRefs: []
