%YAML 1.1
%TAG !u! tag:unity3d.com,2011:
--- !u!114 &11400000
MonoBehaviour:
  m_ObjectHideFlags: 0
  m_CorrespondingSourceObject: {fileID: 0}
  m_PrefabInstance: {fileID: 0}
  m_PrefabAsset: {fileID: 0}
  m_GameObject: {fileID: 0}
  m_Enabled: 1
  m_EditorHideFlags: 0
  m_Script: {fileID: 11500000, guid: bbb281ee3bf0b054c82ac2347e9e782c, type: 3}
  m_Name: Default Local Group
  m_EditorClassIdentifier: 
  m_GroupName: Default Local Group
  m_Data:
    m_SerializedData: []
  m_GUID: ca62f5941c1444605892ad704914b52e
  m_SerializeEntries:
  - m_GUID: 00b8a8d65330942f39a94d58616da7f8
    m_Address: PlayerCharacterConfig
    m_ReadOnly: 0
    m_SerializedLabels: []
  - m_GUID: 00bc85ab7fdb542638228cdb03842cfc
    m_Address: EnemyCharacterConfig
    m_ReadOnly: 0
    m_SerializedLabels: []
  - m_GUID: 04035b16bda954eb09a0bc090e30262a
    m_Address: Level_1
    m_ReadOnly: 0
    m_SerializedLabels:
    - Levels
  - m_GUID: 5427e9eaacb1b4c40bb08c4d4bdd3811
    m_Address: Level_0
    m_ReadOnly: 0
    m_SerializedLabels:
    - Levels
  - m_GUID: 54502cfbe6c814715a873489b5cdbcec
    m_Address: ArrowBullet
    m_ReadOnly: 0
    m_SerializedLabels: []
  - m_GUID: 5b83b5f50b766400f87acc0a10f199d8
    m_Address: EnemyCharacter
    m_ReadOnly: 0
    m_SerializedLabels: []
  - m_GUID: 5f373368cbea14079910779187edeeb6
    m_Address: EcsSerializationConfig
    m_ReadOnly: 0
    m_SerializedLabels: []
  - m_GUID: 93907415f07724e2d8449280bb3b21b4
    m_Address: Player
    m_ReadOnly: 0
    m_SerializedLabels: []
  - m_GUID: de78d83ae6f1d4a73bb5abfcda22eff5
    m_Address: PlayerCharacter
    m_ReadOnly: 0
    m_SerializedLabels: []
  m_ReadOnly: 0
  m_Settings: {fileID: 11400000, guid: 40deb36b3610843078ebda814dced16c, type: 2}
  m_SchemaSet:
    m_Schemas:
    - {fileID: 11400000, guid: 65b3634293bd64fac98cb93f3ba705f0, type: 2}
    - {fileID: 11400000, guid: ea597eb10e319403c808f6ef7211cbd8, type: 2}
