%YAML 1.1
%TAG !u! tag:unity3d.com,2011:
--- !u!114 &11400000
MonoBehaviour:
  m_ObjectHideFlags: 0
  m_CorrespondingSourceObject: {fileID: 0}
  m_PrefabInstance: {fileID: 0}
  m_PrefabAsset: {fileID: 0}
  m_GameObject: {fileID: 0}
  m_Enabled: 1
  m_EditorHideFlags: 0
  m_Script: {fileID: 11500000, guid: cfc050aa338d4c8ea4298b619647a711, type: 3}
  m_Name: Level_1
  m_EditorClassIdentifier: 
  serializationData:
    SerializedFormat: 2
    SerializedBytes: 
    ReferencedUnityObjects:
    - {fileID: 11400000, guid: 00bc85ab7fdb542638228cdb03842cfc, type: 2}
    SerializedBytesString: 
    Prefab: {fileID: 0}
    PrefabModificationsReferencedUnityObjects: []
    PrefabModifications: []
    SerializationNodes:
    - Name: Item
      Entry: 7
      Data: 0|Models.Levels.LevelModel, Assembly-CSharp
    - Name: _scene
      Entry: 3
      Data: 0
    - Name: _id
      Entry: 1
      Data: Level_1
    - Name: _enemies
      Entry: 7
      Data: 1|System.Collections.Generic.Dictionary`2[[Models.Levels.SpawnPointModel,
        Assembly-CSharp],[Configs.CharacterHolder, Assembly-CSharp]], mscorlib
    - Name: comparer
      Entry: 7
      Data: 2|System.Collections.Generic.ObjectEqualityComparer`1[[Models.Levels.SpawnPointModel,
        Assembly-CSharp]], mscorlib
    - Name: 
      Entry: 8
      Data: 
    - Name: 
      Entry: 12
      Data: 3
    - Name: 
      Entry: 7
      Data: 
    - Name: $k
      Entry: 7
      Data: 3|Models.Levels.SpawnPointModel, Assembly-CSharp
    - Name: _pos
      Entry: 7
      Data: UnityEngine.Vector2Int, UnityEngine.CoreModule
    - Name: 
      Entry: 3
      Data: 0
    - Name: 
      Entry: 3
      Data: 7
    - Name: 
      Entry: 8
      Data: 
    - Name: 
      Entry: 8
      Data: 
    - Name: $v
      Entry: 10
      Data: 0
    - Name: 
      Entry: 8
      Data: 
    - Name: 
      Entry: 7
      Data: 
    - Name: $k
      Entry: 7
      Data: 4|Models.Levels.SpawnPointModel, Assembly-CSharp
    - Name: _pos
      Entry: 7
      Data: UnityEngine.Vector2Int, UnityEngine.CoreModule
    - Name: 
      Entry: 3
      Data: 5
    - Name: 
      Entry: 3
      Data: 5
    - Name: 
      Entry: 8
      Data: 
    - Name: 
      Entry: 8
      Data: 
    - Name: $v
      Entry: 10
      Data: 0
    - Name: 
      Entry: 8
      Data: 
    - Name: 
      Entry: 7
      Data: 
    - Name: $k
      Entry: 7
      Data: 5|Models.Levels.SpawnPointModel, Assembly-CSharp
    - Name: _pos
      Entry: 7
      Data: UnityEngine.Vector2Int, UnityEngine.CoreModule
    - Name: 
      Entry: 3
      Data: 10
    - Name: 
      Entry: 3
      Data: 7
    - Name: 
      Entry: 8
      Data: 
    - Name: 
      Entry: 8
      Data: 
    - Name: $v
      Entry: 10
      Data: 0
    - Name: 
      Entry: 8
      Data: 
    - Name: 
      Entry: 13
      Data: 
    - Name: 
      Entry: 8
      Data: 
    - Name: _level
      Entry: 7
      Data: 6|Models.Levels.TypeCell[,], Assembly-CSharp
    - Name: 
      Entry: 12
      Data: 99
    - Name: ranks
      Entry: 1
      Data: 11|9
    - Name: 
      Entry: 3
      Data: 0
    - Name: 
      Entry: 3
      Data: 0
    - Name: 
      Entry: 3
      Data: 0
    - Name: 
      Entry: 3
      Data: 2
    - Name: 
      Entry: 3
      Data: 2
    - Name: 
      Entry: 3
      Data: 0
    - Name: 
      Entry: 3
      Data: 0
    - Name: 
      Entry: 3
      Data: 3
    - Name: 
      Entry: 3
      Data: 0
    - Name: 
      Entry: 3
      Data: 0
    - Name: 
      Entry: 3
      Data: 0
    - Name: 
      Entry: 3
      Data: 0
    - Name: 
      Entry: 3
      Data: 0
    - Name: 
      Entry: 3
      Data: 0
    - Name: 
      Entry: 3
      Data: 0
    - Name: 
      Entry: 3
      Data: 0
    - Name: 
      Entry: 3
      Data: 0
    - Name: 
      Entry: 3
      Data: 0
    - Name: 
      Entry: 3
      Data: 0
    - Name: 
      Entry: 3
      Data: 0
    - Name: 
      Entry: 3
      Data: 0
    - Name: 
      Entry: 3
      Data: 0
    - Name: 
      Entry: 3
      Data: 0
    - Name: 
      Entry: 3
      Data: 0
    - Name: 
      Entry: 3
      Data: 0
    - Name: 
      Entry: 3
      Data: 0
    - Name: 
      Entry: 3
      Data: 0
    - Name: 
      Entry: 3
      Data: 0
    - Name: 
      Entry: 3
      Data: 0
    - Name: 
      Entry: 3
      Data: 0
    - Name: 
      Entry: 3
      Data: 0
    - Name: 
      Entry: 3
      Data: 0
    - Name: 
      Entry: 3
      Data: 0
    - Name: 
      Entry: 3
      Data: 0
    - Name: 
      Entry: 3
      Data: 0
    - Name: 
      Entry: 3
      Data: 0
    - Name: 
      Entry: 3
      Data: 0
    - Name: 
      Entry: 3
      Data: 0
    - Name: 
      Entry: 3
      Data: 0
    - Name: 
      Entry: 3
      Data: 0
    - Name: 
      Entry: 3
      Data: 0
    - Name: 
      Entry: 3
      Data: 0
    - Name: 
      Entry: 3
      Data: 0
    - Name: 
      Entry: 3
      Data: 0
    - Name: 
      Entry: 3
      Data: 0
    - Name: 
      Entry: 3
      Data: 0
    - Name: 
      Entry: 3
      Data: 0
    - Name: 
      Entry: 3
      Data: 0
    - Name: 
      Entry: 3
      Data: 0
    - Name: 
      Entry: 3
      Data: 0
    - Name: 
      Entry: 3
      Data: 3
    - Name: 
      Entry: 3
      Data: 0
    - Name: 
      Entry: 3
      Data: 0
    - Name: 
      Entry: 3
      Data: 0
    - Name: 
      Entry: 3
      Data: 0
    - Name: 
      Entry: 3
      Data: 0
    - Name: 
      Entry: 3
      Data: 0
    - Name: 
      Entry: 3
      Data: 0
    - Name: 
      Entry: 3
      Data: 0
    - Name: 
      Entry: 3
      Data: 0
    - Name: 
      Entry: 3
      Data: 0
    - Name: 
      Entry: 3
      Data: 0
    - Name: 
      Entry: 3
      Data: 0
    - Name: 
      Entry: 3
      Data: 0
    - Name: 
      Entry: 3
      Data: 0
    - Name: 
      Entry: 3
      Data: 0
    - Name: 
      Entry: 3
      Data: 0
    - Name: 
      Entry: 3
      Data: 0
    - Name: 
      Entry: 3
      Data: 0
    - Name: 
      Entry: 3
      Data: 0
    - Name: 
      Entry: 3
      Data: 0
    - Name: 
      Entry: 3
      Data: 0
    - Name: 
      Entry: 3
      Data: 0
    - Name: 
      Entry: 3
      Data: 0
    - Name: 
      Entry: 3
      Data: 0
    - Name: 
      Entry: 3
      Data: 0
    - Name: 
      Entry: 3
      Data: 0
    - Name: 
      Entry: 3
      Data: 0
    - Name: 
      Entry: 3
      Data: 0
    - Name: 
      Entry: 3
      Data: 0
    - Name: 
      Entry: 3
      Data: 0
    - Name: 
      Entry: 3
      Data: 0
    - Name: 
      Entry: 3
      Data: 0
    - Name: 
      Entry: 3
      Data: 0
    - Name: 
      Entry: 3
      Data: 0
    - Name: 
      Entry: 3
      Data: 0
    - Name: 
      Entry: 3
      Data: 0
    - Name: 
      Entry: 3
      Data: 0
    - Name: 
      Entry: 3
      Data: 0
    - Name: 
      Entry: 3
      Data: 0
    - Name: 
      Entry: 3
      Data: 0
    - Name: 
      Entry: 3
      Data: 0
    - Name: 
      Entry: 3
      Data: 0
    - Name: 
      Entry: 3
      Data: 0
    - Name: 
      Entry: 3
      Data: 0
    - Name: 
      Entry: 3
      Data: 0
    - Name: 
      Entry: 3
      Data: 0
    - Name: 
      Entry: 3
      Data: 3
    - Name: 
      Entry: 3
      Data: 0
    - Name: 
      Entry: 13
      Data: 
    - Name: 
      Entry: 8
      Data: 
    - Name: 
      Entry: 8
      Data: 
